water_meter.c:35:6:waterMeter_Reading	16	static
water_meter.c:44:6:init_gpio_interrupt	32	static
water_meter.c:62:6:init_gpio_tamp_interrupt	32	static
water_meter.c:83:6:switch2_interruptFunction	32	static
water_meter.c:118:6:switch1_interruptFunction	32	static
water_meter.c:147:6:flowmeter	8	static
water_meter.c:182:10:batterylife	32	static
water_meter.c:219:6:tamp_interruptFunction	8	static
water_meter.c:236:6:watermeterGPIO_Init	32	static
water_meter.c:259:6:watermeterInit	8	static
water_meter.c:275:6:enable	8	static
water_meter.c:292:6:disable	8	static
